Verification/Assignments_Abdelrahman_Khaled/Task 6/Method 1/log/transcript.log
# Reading pref.tcl
# //  Questa Sim-64
# //  Version 2021.1 win64 Jan 19 2021
# //
# //  Copyright 1991-2021 Mentor Graphics Corporation
# //  All Rights Reserved.
# //
# //  QuestaSim and its associated documentation contain trade
# //  secrets and commercial or financial information that are the property of
# //  Mentor Graphics Corporation and are privileged, confidential,
# //  and exempt from disclosure under the Freedom of Information Act,
# //  5 U.S.C. Section 552. Furthermore, this information
# //  is prohibited from disclosure under the Trade Secrets Act,
# //  18 U.S.C. Section 1905.
# //
# vsim -gui -onfinish stop -pli "C:/Users/ABD_ELR7MAN/AppData/Roaming/Python/Python312/site-packages/cocotb/libs/cocotbvpi_modelsim.dll" -l transcript.log top.ALU 
# Start time: 05:48:13 on Mar 05,2026
# ** Note: (vsim-3812) Design is being optimized...
# ** Warning: (vsim-3865) Due to PLI being present, global +acc is being enabled automatically. This will cause your simulation to run very slowly. Please use vsim -no_autoacc to disable this feature. This feature is now deprecated and will be removed from future releases.
# Loading sv_std.std
# Loading work.dut_sv_unit(fast)
# Loading work.ALU(fast)
# Loading C:/Users/ABD_ELR7MAN/AppData/Roaming/Python/Python312/site-packages/cocotb/libs/cocotbvpi_modelsim.dll
#      -.--ns INFO     gpi                                ..mbed\gpi_embed.cpp:81   in set_program_name_in_venv        Did not detect Python virtual environment. Using system-wide Python interpreter
#      -.--ns INFO     gpi                                ..\gpi\GpiCommon.cpp:101  in gpi_print_registered_impl       VPI registered
#      -.--ns INFO     gpi                                ..\gpi\GpiCommon.cpp:101  in gpi_print_registered_impl       FLI registered
add wave -position insertpoint  \
sim:/ALU/a \
sim:/ALU/b \
sim:/ALU/c \
sim:/ALU/clk \
sim:/ALU/op \
sim:/ALU/out \
sim:/ALU/out_data \
sim:/ALU/rst_n
run -all
#      0.00ns INFO     cocotb                             Running on ModelSim for Questa-64 version 2021.1 2021.01
# 
#      0.00ns INFO     cocotb                             Running tests with cocotb v1.9.2 from C:\Users\ABD_ELR7MAN\AppData\Roaming\Python\Python312\site-packages\cocotb
# 
#      0.00ns INFO     cocotb                             Seeding Python random module with 1772682507
# 
#      0.00ns INFO     cocotb.regression                  pytest not found, install it to enable better AssertionError messages
# 
#      0.00ns INFO     cocotb.regression                  Found test testbench.run_add_test
# 
#      0.00ns INFO     cocotb.regression                  Found test testbench.run_xor_test
# 
#      0.00ns INFO     cocotb.regression                  Found test testbench.run_and_test
# 
#      0.00ns INFO     cocotb.regression                  Found test testbench.run_or_test
# 
#      0.00ns INFO     cocotb.regression                  Found test testbench.run_random_test
# 
#      0.00ns INFO     cocotb.regression                  running run_add_test (1/5)
# 
#      0.00ns ERROR    cocotb                             ERROR: Expected=0 | Got: ALUTransaction(rst_n=1, a=0, b=0, op=0, out=10, c=0)
# 
#     10.00ns INFO     cocotb                             PASS: ALUTransaction(rst_n=1, a=12, b=7, op=0, out=3, c=1)
# 
#     20.00ns INFO     cocotb                             PASS: ALUTransaction(rst_n=1, a=1, b=2, op=0, out=3, c=0)
# 
#     30.00ns ERROR    cocotb                             ERROR: Expected=11 | Got: ALUTransaction(rst_n=1, a=4, b=7, op=0, out=15, c=0)
# 
#     40.00ns ERROR    cocotb                             ERROR: Expected=12 | Got: ALUTransaction(rst_n=1, a=8, b=4, op=0, out=11, c=0)
# 
#     50.00ns ERROR    cocotb                             ERROR: Expected=13 | Got: ALUTransaction(rst_n=1, a=10, b=3, op=0, out=15, c=1)
# 
#     60.00ns ERROR    cocotb                             ERROR: Expected=8 | Got: ALUTransaction(rst_n=1, a=8, b=0, op=0, out=12, c=0)
# 
#     70.00ns INFO     cocotb                             PASS: ALUTransaction(rst_n=1, a=10, b=1, op=0, out=11, c=0)
# 
#     80.00ns INFO     cocotb                             PASS: ALUTransaction(rst_n=1, a=3, b=12, op=0, out=15, c=0)
# 
#     90.00ns INFO     cocotb                             PASS: ALUTransaction(rst_n=1, a=6, b=9, op=0, out=15, c=0)
# 
#    100.00ns ERROR    cocotb                             ERROR: Expected=2 | Got: ALUTransaction(rst_n=1, a=9, b=9, op=0, out=1, c=0)
# 
#    110.00ns ERROR    cocotb                             ERROR: Expected=1 | Got: ALUTransaction(rst_n=1, a=8, b=9, op=0, out=11, c=1)
# 
#    120.00ns INFO     cocotb                             PASS: ALUTransaction(rst_n=1, a=5, b=9, op=0, out=14, c=0)
# 
#    130.00ns INFO     cocotb                             PASS: ALUTransaction(rst_n=1, a=4, b=3, op=0, out=7, c=0)
# 
#    140.00ns INFO     cocotb                             PASS: ALUTransaction(rst_n=1, a=14, b=7, op=0, out=5, c=1)
# 
#    150.00ns INFO     cocotb                             PASS: ALUTransaction(rst_n=1, a=14, b=11, op=0, out=9, c=1)
# 
#    160.00ns INFO     cocotb                             PASS: ALUTransaction(rst_n=1, a=7, b=12, op=0, out=3, c=1)
# 
#    170.00ns INFO     cocotb                             PASS: ALUTransaction(rst_n=1, a=15, b=12, op=0, out=11, c=1)
# 
#    180.00ns ERROR    cocotb                             ERROR: Expected=1 | Got: ALUTransaction(rst_n=1, a=3, b=14, op=0, out=11, c=1)
# 
#    190.00ns INFO     cocotb                             PASS: ALUTransaction(rst_n=1, a=5, b=6, op=0, out=11, c=0)
# 
#    200.00ns INFO     cocotb                             PASS: ALUTransaction(rst_n=1, a=14, b=9, op=0, out=7, c=1)
# 
#    210.00ns INFO     cocotb                             PASS: ALUTransaction(rst_n=1, a=14, b=9, op=0, out=7, c=1)
# 
#    220.00ns INFO     cocotb                             PASS: ALUTransaction(rst_n=1, a=14, b=9, op=0, out=7, c=1)
# 
#    230.00ns INFO     cocotb                             PASS: ALUTransaction(rst_n=1, a=14, b=9, op=0, out=7, c=1)
# 
#    240.00ns INFO     cocotb                             PASS: ALUTransaction(rst_n=1, a=14, b=9, op=0, out=7, c=1)
# 
#    250.00ns INFO     cocotb                             PASS: ALUTransaction(rst_n=1, a=14, b=9, op=0, out=7, c=1)
# 
#    260.00ns INFO     cocotb                             PASS: ALUTransaction(rst_n=1, a=14, b=9, op=0, out=7, c=1)
# 
#    270.00ns INFO     cocotb                             PASS: ALUTransaction(rst_n=1, a=14, b=9, op=0, out=7, c=1)
# 
#    280.00ns INFO     cocotb                             PASS: ALUTransaction(rst_n=1, a=14, b=9, op=0, out=7, c=1)
# 
#    290.00ns INFO     cocotb                             ========== SCOREBOARD REPORT ==========
# 
#    290.00ns INFO     cocotb                             Total Checked: 29
# 
#    290.00ns INFO     cocotb                             Errors: 8
# 
#    290.00ns ERROR    cocotb                             TEST FAILED
# 
#    291.00ns INFO     cocotb.regression                  run_add_test passed
# 
#    291.00ns INFO     cocotb.regression                  running run_xor_test (2/5)
# 
#    301.00ns ERROR    cocotb                             ERROR: Expected=5 | Got: ALUTransaction(rst_n=1, a=3, b=6, op=1, out=3, c=0)
# 
#    311.00ns INFO     cocotb                             PASS: ALUTransaction(rst_n=1, a=4, b=5, op=1, out=1, c=0)
# 
#    321.00ns INFO     cocotb                             PASS: ALUTransaction(rst_n=1, a=8, b=8, op=1, out=0, c=0)
# 
#    331.00ns INFO     cocotb                             PASS: ALUTransaction(rst_n=1, a=7, b=4, op=1, out=3, c=0)
# 
#    341.00ns INFO     cocotb                             PASS: ALUTransaction(rst_n=1, a=10, b=9, op=1, out=3, c=0)
# 
#    351.00ns INFO     cocotb                             PASS: ALUTransaction(rst_n=1, a=8, b=14, op=1, out=6, c=0)
# 
#    361.00ns INFO     cocotb                             PASS: ALUTransaction(rst_n=1, a=15, b=9, op=1, out=6, c=0)
# 
#    371.00ns ERROR    cocotb                             ERROR: Expected=8 | Got: ALUTransaction(rst_n=1, a=5, b=13, op=1, out=10, c=1)
# 
#    381.00ns INFO     cocotb                             PASS: ALUTransaction(rst_n=1, a=5, b=7, op=1, out=2, c=0)
# 
#    391.00ns INFO     cocotb                             PASS: ALUTransaction(rst_n=1, a=6, b=8, op=1, out=14, c=0)
# 
#    401.00ns INFO     cocotb                             PASS: ALUTransaction(rst_n=1, a=0, b=12, op=1, out=12, c=0)
# 
#    411.00ns ERROR    cocotb                             ERROR: Expected=5 | Got: ALUTransaction(rst_n=1, a=3, b=6, op=1, out=3, c=0)
# 
#    421.00ns ERROR    cocotb                             ERROR: Expected=9 | Got: ALUTransaction(rst_n=1, a=11, b=2, op=1, out=4, c=0)
# 
#    431.00ns INFO     cocotb                             PASS: ALUTransaction(rst_n=1, a=0, b=4, op=1, out=4, c=0)
# 
#    441.00ns INFO     cocotb                             PASS: ALUTransaction(rst_n=1, a=8, b=9, op=1, out=1, c=0)
# 
#    451.00ns INFO     cocotb                             PASS: ALUTransaction(rst_n=1, a=1, b=6, op=1, out=7, c=0)
# 
#    461.00ns ERROR    cocotb                             ERROR: Expected=9 | Got: ALUTransaction(rst_n=1, a=9, b=0, op=1, out=4, c=0)
# 
#    471.00ns INFO     cocotb                             PASS: ALUTransaction(rst_n=1, a=12, b=14, op=1, out=2, c=0)
# 
#    481.00ns INFO     cocotb                             PASS: ALUTransaction(rst_n=1, a=10, b=4, op=1, out=14, c=0)
# 
#    491.00ns INFO     cocotb                             PASS: ALUTransaction(rst_n=1, a=15, b=15, op=1, out=0, c=0)
# 
#    501.00ns INFO     cocotb                             PASS: ALUTransaction(rst_n=1, a=15, b=15, op=1, out=0, c=0)
# 
#    511.00ns INFO     cocotb                             PASS: ALUTransaction(rst_n=1, a=15, b=15, op=1, out=0, c=0)
# 
#    521.00ns INFO     cocotb                             PASS: ALUTransaction(rst_n=1, a=15, b=15, op=1, out=0, c=0)
# 
#    531.00ns INFO     cocotb                             PASS: ALUTransaction(rst_n=1, a=15, b=15, op=1, out=0, c=0)
# 
#    541.00ns INFO     cocotb                             PASS: ALUTransaction(rst_n=1, a=15, b=15, op=1, out=0, c=0)
# 
#    551.00ns INFO     cocotb                             PASS: ALUTransaction(rst_n=1, a=15, b=15, op=1, out=0, c=0)
# 
#    561.00ns INFO     cocotb                             PASS: ALUTransaction(rst_n=1, a=15, b=15, op=1, out=0, c=0)
# 
#    571.00ns INFO     cocotb                             PASS: ALUTransaction(rst_n=1, a=15, b=15, op=1, out=0, c=0)
# 
#    581.00ns INFO     cocotb                             PASS: ALUTransaction(rst_n=1, a=15, b=15, op=1, out=0, c=0)
# 
#    591.00ns INFO     cocotb                             ========== SCOREBOARD REPORT ==========
# 
#    591.00ns INFO     cocotb                             Total Checked: 29
# 
#    591.00ns INFO     cocotb                             Errors: 5
# 
#    591.00ns ERROR    cocotb                             TEST FAILED
# 
#    592.00ns INFO     cocotb.regression                  run_xor_test passed
# 
#    592.00ns INFO     cocotb.regression                  running run_and_test (3/5)
# 
#    602.00ns ERROR    cocotb                             ERROR: Expected=8 | Got: ALUTransaction(rst_n=1, a=10, b=12, op=2, out=9, c=0)
# 
#    612.00ns ERROR    cocotb                             ERROR: Expected=2 | Got: ALUTransaction(rst_n=1, a=2, b=2, op=2, out=14, c=1)
# 
#    622.00ns INFO     cocotb                             PASS: ALUTransaction(rst_n=1, a=6, b=13, op=2, out=4, c=0)
# 
#    632.00ns INFO     cocotb                             PASS: ALUTransaction(rst_n=1, a=6, b=13, op=2, out=4, c=0)
# 
#    642.00ns INFO     cocotb                             PASS: ALUTransaction(rst_n=1, a=0, b=12, op=2, out=0, c=0)
# 
#    652.00ns ERROR    cocotb                             ERROR: Expected=0 | Got: ALUTransaction(rst_n=1, a=10, b=1, op=2, out=5, c=0)
# 
#    662.00ns ERROR    cocotb                             ERROR: Expected=0 | Got: ALUTransaction(rst_n=1, a=1, b=2, op=2, out=4, c=0)
# 
#    672.00ns INFO     cocotb                             PASS: ALUTransaction(rst_n=1, a=2, b=7, op=2, out=2, c=0)
# 
#    682.00ns INFO     cocotb                             PASS: ALUTransaction(rst_n=1, a=0, b=2, op=2, out=0, c=0)
# 
#    692.00ns INFO     cocotb                             PASS: ALUTransaction(rst_n=1, a=14, b=3, op=2, out=2, c=0)
# 
#    702.00ns INFO     cocotb                             PASS: ALUTransaction(rst_n=1, a=1, b=9, op=2, out=1, c=0)
# 
#    712.00ns ERROR    cocotb                             ERROR: Expected=5 | Got: ALUTransaction(rst_n=1, a=13, b=7, op=2, out=2, c=0)
# 
#    722.00ns INFO     cocotb                             PASS: ALUTransaction(rst_n=1, a=1, b=4, op=2, out=0, c=0)
# 
#    732.00ns INFO     cocotb                             PASS: ALUTransaction(rst_n=1, a=13, b=15, op=2, out=13, c=0)
# 
#    742.00ns INFO     cocotb                             PASS: ALUTransaction(rst_n=1, a=7, b=6, op=2, out=6, c=0)
# 
#    752.00ns ERROR    cocotb                             ERROR: Expected=0 | Got: ALUTransaction(rst_n=1, a=9, b=4, op=2, out=7, c=0)
# 
#    762.00ns INFO     cocotb                             PASS: ALUTransaction(rst_n=1, a=9, b=3, op=2, out=1, c=0)
# 
#    772.00ns INFO     cocotb                             PASS: ALUTransaction(rst_n=1, a=3, b=8, op=2, out=0, c=0)
# 
#    782.00ns INFO     cocotb                             PASS: ALUTransaction(rst_n=1, a=1, b=7, op=2, out=1, c=0)
# 
#    792.00ns INFO     cocotb                             PASS: ALUTransaction(rst_n=1, a=8, b=10, op=2, out=8, c=0)
# 
#    802.00ns INFO     cocotb                             PASS: ALUTransaction(rst_n=1, a=8, b=10, op=2, out=8, c=0)
# 
#    812.00ns INFO     cocotb                             PASS: ALUTransaction(rst_n=1, a=8, b=10, op=2, out=8, c=0)
# 
#    822.00ns INFO     cocotb                             PASS: ALUTransaction(rst_n=1, a=8, b=10, op=2, out=8, c=0)
# 
#    832.00ns INFO     cocotb                             PASS: ALUTransaction(rst_n=1, a=8, b=10, op=2, out=8, c=0)
# 
#    842.00ns INFO     cocotb                             PASS: ALUTransaction(rst_n=1, a=8, b=10, op=2, out=8, c=0)
# 
#    852.00ns INFO     cocotb                             PASS: ALUTransaction(rst_n=1, a=8, b=10, op=2, out=8, c=0)
# 
#    862.00ns INFO     cocotb                             PASS: ALUTransaction(rst_n=1, a=8, b=10, op=2, out=8, c=0)
# 
#    872.00ns INFO     cocotb                             PASS: ALUTransaction(rst_n=1, a=8, b=10, op=2, out=8, c=0)
# 
#    882.00ns INFO     cocotb                             PASS: ALUTransaction(rst_n=1, a=8, b=10, op=2, out=8, c=0)
# 
#    892.00ns INFO     cocotb                             ========== SCOREBOARD REPORT ==========
# 
#    892.00ns INFO     cocotb                             Total Checked: 29
# 
#    892.00ns INFO     cocotb                             Errors: 6
# 
#    892.00ns ERROR    cocotb                             TEST FAILED
# 
#    893.00ns INFO     cocotb.regression                  run_and_test passed
# 
#    893.00ns INFO     cocotb.regression                  running run_or_test (4/5)
# 
#    903.00ns INFO     cocotb                             PASS: ALUTransaction(rst_n=1, a=0, b=10, op=3, out=10, c=0)
# 
#    913.00ns INFO     cocotb                             PASS: ALUTransaction(rst_n=1, a=14, b=6, op=3, out=14, c=0)
# 
#    923.00ns ERROR    cocotb                             ERROR: Expected=13 | Got: ALUTransaction(rst_n=1, a=1, b=12, op=3, out=9, c=1)
# 
#    933.00ns INFO     cocotb                             PASS: ALUTransaction(rst_n=1, a=9, b=15, op=3, out=15, c=0)
# 
#    943.00ns ERROR    cocotb                             ERROR: Expected=9 | Got: ALUTransaction(rst_n=1, a=8, b=1, op=3, out=5, c=1)
# 
#    953.00ns INFO     cocotb                             PASS: ALUTransaction(rst_n=1, a=10, b=15, op=3, out=15, c=0)
# 
#    963.00ns INFO     cocotb                             PASS: ALUTransaction(rst_n=1, a=13, b=2, op=3, out=15, c=0)
# 
#    973.00ns INFO     cocotb                             PASS: ALUTransaction(rst_n=1, a=7, b=6, op=3, out=7, c=0)
# 
#    983.00ns INFO     cocotb                             PASS: ALUTransaction(rst_n=1, a=5, b=6, op=3, out=7, c=0)
# 
#    993.00ns INFO     cocotb                             PASS: ALUTransaction(rst_n=1, a=3, b=8, op=3, out=11, c=1)
# 
#   1003.00ns INFO     cocotb                             PASS: ALUTransaction(rst_n=1, a=9, b=1, op=3, out=9, c=0)
# 
#   1013.00ns INFO     cocotb                             PASS: ALUTransaction(rst_n=1, a=8, b=13, op=3, out=13, c=0)
# 
#   1023.00ns INFO     cocotb                             PASS: ALUTransaction(rst_n=1, a=10, b=6, op=3, out=14, c=0)
# 
#   1033.00ns ERROR    cocotb                             ERROR: Expected=15 | Got: ALUTransaction(rst_n=1, a=4, b=11, op=3, out=12, c=0)
# 
#   1043.00ns ERROR    cocotb                             ERROR: Expected=7 | Got: ALUTransaction(rst_n=1, a=7, b=4, op=3, out=6, c=1)
# 
#   1053.00ns INFO     cocotb                             PASS: ALUTransaction(rst_n=1, a=12, b=13, op=3, out=13, c=0)
# 
#   1063.00ns INFO     cocotb                             PASS: ALUTransaction(rst_n=1, a=0, b=8, op=3, out=8, c=0)
# 
#   1073.00ns INFO     cocotb                             PASS: ALUTransaction(rst_n=1, a=12, b=10, op=3, out=14, c=0)
# 
#   1083.00ns ERROR    cocotb                             ERROR: Expected=7 | Got: ALUTransaction(rst_n=1, a=3, b=4, op=3, out=15, c=1)
# 
#   1093.00ns ERROR    cocotb                             ERROR: Expected=7 | Got: ALUTransaction(rst_n=1, a=7, b=5, op=3, out=15, c=1)
# 
#   1103.00ns ERROR    cocotb                             ERROR: Expected=7 | Got: ALUTransaction(rst_n=1, a=7, b=5, op=3, out=15, c=1)
# 
#   1113.00ns ERROR    cocotb                             ERROR: Expected=7 | Got: ALUTransaction(rst_n=1, a=7, b=5, op=3, out=15, c=1)
# 
#   1123.00ns ERROR    cocotb                             ERROR: Expected=7 | Got: ALUTransaction(rst_n=1, a=7, b=5, op=3, out=15, c=1)
# 
#   1133.00ns ERROR    cocotb                             ERROR: Expected=7 | Got: ALUTransaction(rst_n=1, a=7, b=5, op=3, out=15, c=1)
# 
#   1143.00ns ERROR    cocotb                             ERROR: Expected=7 | Got: ALUTransaction(rst_n=1, a=7, b=5, op=3, out=15, c=1)
# 
#   1153.00ns ERROR    cocotb                             ERROR: Expected=7 | Got: ALUTransaction(rst_n=1, a=7, b=5, op=3, out=15, c=1)
# 
#   1163.00ns ERROR    cocotb                             ERROR: Expected=7 | Got: ALUTransaction(rst_n=1, a=7, b=5, op=3, out=15, c=1)
# 
#   1173.00ns ERROR    cocotb                             ERROR: Expected=7 | Got: ALUTransaction(rst_n=1, a=7, b=5, op=3, out=15, c=1)
# 
#   1183.00ns ERROR    cocotb                             ERROR: Expected=7 | Got: ALUTransaction(rst_n=1, a=7, b=5, op=3, out=15, c=1)
# 
#   1193.00ns INFO     cocotb                             ========== SCOREBOARD REPORT ==========
# 
#   1193.00ns INFO     cocotb                             Total Checked: 29
# 
#   1193.00ns INFO     cocotb                             Errors: 15
# 
#   1193.00ns ERROR    cocotb                             TEST FAILED
# 
#   1194.00ns INFO     cocotb.regression                  run_or_test passed
# 
#   1194.00ns INFO     cocotb.regression                  running run_random_test (5/5)
# 
#   1204.00ns INFO     cocotb                             PASS: ALUTransaction(rst_n=1, a=10, b=1, op=3, out=11, c=0)
# 
#   1214.00ns INFO     cocotb                             PASS: ALUTransaction(rst_n=1, a=9, b=1, op=2, out=1, c=0)
# 
#   1224.00ns ERROR    cocotb                             ERROR: Expected=6 | Got: ALUTransaction(rst_n=1, a=10, b=12, op=1, out=1, c=1)
# 
#   1234.00ns INFO     cocotb                             PASS: ALUTransaction(rst_n=1, a=5, b=14, op=0, out=3, c=1)
# 
#   1244.00ns INFO     cocotb                             PASS: ALUTransaction(rst_n=1, a=9, b=12, op=0, out=5, c=1)
# 
#   1254.00ns INFO     cocotb                             PASS: ALUTransaction(rst_n=1, a=6, b=6, op=2, out=6, c=0)
# 
#   1264.00ns ERROR    cocotb                             ERROR: Expected=5 | Got: ALUTransaction(rst_n=1, a=6, b=3, op=1, out=12, c=0)
# 
#   1274.00ns INFO     cocotb                             PASS: ALUTransaction(rst_n=1, a=0, b=6, op=2, out=0, c=0)
# 
#   1284.00ns INFO     cocotb                             PASS: ALUTransaction(rst_n=1, a=4, b=0, op=2, out=0, c=0)
# 
#   1294.00ns ERROR    cocotb                             ERROR: Expected=8 | Got: ALUTransaction(rst_n=1, a=11, b=12, op=2, out=4, c=0)
# 
#   1304.00ns INFO     cocotb                             PASS: ALUTransaction(rst_n=1, a=2, b=4, op=1, out=6, c=0)
# 
#   1314.00ns INFO     cocotb                             PASS: ALUTransaction(rst_n=1, a=12, b=12, op=1, out=0, c=0)
# 
#   1324.00ns INFO     cocotb                             PASS: ALUTransaction(rst_n=1, a=7, b=11, op=2, out=3, c=0)
# 
#   1334.00ns INFO     cocotb                             PASS: ALUTransaction(rst_n=1, a=4, b=10, op=3, out=14, c=0)
# 
#   1344.00ns INFO     cocotb                             PASS: ALUTransaction(rst_n=1, a=7, b=13, op=1, out=10, c=0)
# 
#   1354.00ns INFO     cocotb                             PASS: ALUTransaction(rst_n=1, a=15, b=5, op=1, out=10, c=0)
# 
#   1364.00ns INFO     cocotb                             PASS: ALUTransaction(rst_n=1, a=5, b=3, op=2, out=1, c=0)
# 
#   1374.00ns INFO     cocotb                             PASS: ALUTransaction(rst_n=1, a=11, b=3, op=3, out=11, c=0)
# 
#   1384.00ns INFO     cocotb                             PASS: ALUTransaction(rst_n=1, a=15, b=2, op=2, out=2, c=0)
# 
#   1394.00ns ERROR    cocotb                             ERROR: Expected=1 | Got: ALUTransaction(rst_n=1, a=3, b=2, op=1, out=13, c=0)
# 
#   1404.00ns ERROR    cocotb                             ERROR: Expected=1 | Got: ALUTransaction(rst_n=1, a=3, b=2, op=1, out=13, c=0)
# 
#   1414.00ns ERROR    cocotb                             ERROR: Expected=1 | Got: ALUTransaction(rst_n=1, a=3, b=2, op=1, out=13, c=0)
# 
#   1424.00ns ERROR    cocotb                             ERROR: Expected=1 | Got: ALUTransaction(rst_n=1, a=3, b=2, op=1, out=13, c=0)
# 
#   1434.00ns ERROR    cocotb                             ERROR: Expected=1 | Got: ALUTransaction(rst_n=1, a=3, b=2, op=1, out=13, c=0)
# 
#   1444.00ns ERROR    cocotb                             ERROR: Expected=1 | Got: ALUTransaction(rst_n=1, a=3, b=2, op=1, out=13, c=0)
# 
#   1454.00ns ERROR    cocotb                             ERROR: Expected=1 | Got: ALUTransaction(rst_n=1, a=3, b=2, op=1, out=13, c=0)
# 
#   1464.00ns ERROR    cocotb                             ERROR: Expected=1 | Got: ALUTransaction(rst_n=1, a=3, b=2, op=1, out=13, c=0)
# 
#   1474.00ns ERROR    cocotb                             ERROR: Expected=1 | Got: ALUTransaction(rst_n=1, a=3, b=2, op=1, out=13, c=0)
# 
#   1484.00ns ERROR    cocotb                             ERROR: Expected=1 | Got: ALUTransaction(rst_n=1, a=3, b=2, op=1, out=13, c=0)
# 
#   1494.00ns INFO     cocotb                             ========== SCOREBOARD REPORT ==========
# 
#   1494.00ns INFO     cocotb                             Total Checked: 29
# 
#   1494.00ns INFO     cocotb                             Errors: 13
# 
#   1494.00ns ERROR    cocotb                             TEST FAILED
# 
#   1495.00ns INFO     cocotb.regression                  run_random_test passed
# 
#   1495.00ns INFO     cocotb.regression                  **************************************************************************************
# 
#                                                         ** TEST                          STATUS  SIM TIME (ns)  REAL TIME (s)  RATIO (ns/s) **
# 
#                                                         **************************************************************************************
# 
#                                                         ** testbench.run_add_test         PASS         291.00           0.01      43904.41  **
# 
#                                                         ** testbench.run_xor_test         PASS         301.00           0.01      36136.06  **
# 
#                                                         ** testbench.run_and_test         PASS         301.00           0.01      36131.92  **
# 
#                                                         ** testbench.run_or_test          PASS         301.00           0.00      72220.44  **
# 
#                                                         ** testbench.run_random_test      PASS         301.00           0.00      72241.10  **
# 
#                                                         **************************************************************************************
# 
#                                                         ** TESTS=5 PASS=5 FAIL=0 SKIP=0               1495.00           0.05      27654.47  **
# 
#                                                         **************************************************************************************
# 
#                                                         
# 
# ** Note: $finish
#    Time: 1495 ns  Iteration: 0  Instance: /ALU
# Simulation stop requested.
