Verification/Assignments_Abdelrahman_Khaled/Task 7/log/transcript.log
# Reading pref.tcl
# //  Questa Sim-64
# //  Version 2021.1 win64 Jan 19 2021
# //
# //  Copyright 1991-2021 Mentor Graphics Corporation
# //  All Rights Reserved.
# //
# //  QuestaSim and its associated documentation contain trade
# //  secrets and commercial or financial information that are the property of
# //  Mentor Graphics Corporation and are privileged, confidential,
# //  and exempt from disclosure under the Freedom of Information Act,
# //  5 U.S.C. Section 552. Furthermore, this information
# //  is prohibited from disclosure under the Trade Secrets Act,
# //  18 U.S.C. Section 1905.
# //
# vsim -gui -onfinish stop -pli "C:/Users/ABD_ELR7MAN/AppData/Roaming/Python/Python312/site-packages/cocotb/libs/cocotbvpi_modelsim.dll" -l transcript.log top.ALU 
# Start time: 02:33:53 on Apr 11,2026
# ** Note: (vsim-3812) Design is being optimized...
# ** Warning: (vsim-3865) Due to PLI being present, global +acc is being enabled automatically. This will cause your simulation to run very slowly. Please use vsim -no_autoacc to disable this feature. This feature is now deprecated and will be removed from future releases.
# Loading sv_std.std
# Loading work.dut_sv_unit(fast)
# Loading work.ALU(fast)
# Loading C:/Users/ABD_ELR7MAN/AppData/Roaming/Python/Python312/site-packages/cocotb/libs/cocotbvpi_modelsim.dll
#      -.--ns INFO     gpi                                ..mbed\gpi_embed.cpp:81   in set_program_name_in_venv        Did not detect Python virtual environment. Using system-wide Python interpreter
#      -.--ns INFO     gpi                                ..\gpi\GpiCommon.cpp:101  in gpi_print_registered_impl       VPI registered
#      -.--ns INFO     gpi                                ..\gpi\GpiCommon.cpp:101  in gpi_print_registered_impl       FLI registered
add wave -position insertpoint  \
sim:/ALU/clk \
sim:/ALU/a \
sim:/ALU/b \
sim:/ALU/op \
sim:/ALU/c \
sim:/ALU/out \
sim:/ALU/out_data
run -all
#      0.00ns INFO     cocotb                             Running on ModelSim for Questa-64 version 2021.1 2021.01
# 
#      0.00ns INFO     cocotb                             Running tests with cocotb v1.9.2 from C:\Users\ABD_ELR7MAN\AppData\Roaming\Python\Python312\site-packages\cocotb
# 
#      0.00ns INFO     cocotb                             Seeding Python random module with 1775867646
# 
#      0.00ns INFO     cocotb.regression                  pytest not found, install it to enable better AssertionError messages
# 
#      0.00ns INFO     cocotb.regression                  Found test ALU_test.ALU_test_runner
# 
#      0.00ns INFO     cocotb.regression                  running ALU_test_runner (1/1)
# 
#      0.00ns INFO     ..on_task_V7.0\src\ALU_test.py(98) [uvm_test_top]: ===== ADD =====
# 
#     10.00ns ERROR    ..k_V7.0\src\ALU_scoreboard.py(27) [uvm_test_top.env.sb_env]: FAIL: ADD a=0 b=1 | out=10 c=0 | Expected c=0 out=1
# 
#     20.00ns ERROR    ..k_V7.0\src\ALU_scoreboard.py(27) [uvm_test_top.env.sb_env]: FAIL: ADD a=0 b=2 | out=7 c=0 | Expected c=0 out=2
# 
#     30.00ns ERROR    ..k_V7.0\src\ALU_scoreboard.py(27) [uvm_test_top.env.sb_env]: FAIL: ADD a=0 b=3 | out=2 c=0 | Expected c=0 out=3
# 
#     40.00ns ERROR    ..k_V7.0\src\ALU_scoreboard.py(27) [uvm_test_top.env.sb_env]: FAIL: ADD a=0 b=4 | out=3 c=0 | Expected c=0 out=4
# 
#     50.00ns ERROR    ..k_V7.0\src\ALU_scoreboard.py(27) [uvm_test_top.env.sb_env]: FAIL: ADD a=0 b=5 | out=4 c=0 | Expected c=0 out=5
# 
#     60.00ns ERROR    ..k_V7.0\src\ALU_scoreboard.py(27) [uvm_test_top.env.sb_env]: FAIL: ADD a=0 b=6 | out=5 c=0 | Expected c=0 out=6
# 
#     70.00ns ERROR    ..k_V7.0\src\ALU_scoreboard.py(27) [uvm_test_top.env.sb_env]: FAIL: ADD a=0 b=7 | out=6 c=0 | Expected c=0 out=7
# 
#     80.00ns ERROR    ..k_V7.0\src\ALU_scoreboard.py(27) [uvm_test_top.env.sb_env]: FAIL: ADD a=0 b=8 | out=7 c=0 | Expected c=0 out=8
# 
#     90.00ns ERROR    ..k_V7.0\src\ALU_scoreboard.py(27) [uvm_test_top.env.sb_env]: FAIL: ADD a=0 b=9 | out=8 c=0 | Expected c=0 out=9
# 
#    100.00ns ERROR    ..k_V7.0\src\ALU_scoreboard.py(27) [uvm_test_top.env.sb_env]: FAIL: ADD a=0 b=10 | out=9 c=0 | Expected c=0 out=10
# 
#    110.00ns ERROR    ..k_V7.0\src\ALU_scoreboard.py(27) [uvm_test_top.env.sb_env]: FAIL: ADD a=0 b=11 | out=2 c=1 | Expected c=0 out=11
# 
#    120.00ns ERROR    ..k_V7.0\src\ALU_scoreboard.py(27) [uvm_test_top.env.sb_env]: FAIL: ADD a=0 b=12 | out=11 c=0 | Expected c=0 out=12
# 
#    130.00ns ERROR    ..k_V7.0\src\ALU_scoreboard.py(27) [uvm_test_top.env.sb_env]: FAIL: ADD a=0 b=13 | out=12 c=0 | Expected c=0 out=13
# 
#    140.00ns ERROR    ..k_V7.0\src\ALU_scoreboard.py(27) [uvm_test_top.env.sb_env]: FAIL: ADD a=0 b=14 | out=13 c=0 | Expected c=0 out=14
# 
#    150.00ns ERROR    ..k_V7.0\src\ALU_scoreboard.py(27) [uvm_test_top.env.sb_env]: FAIL: ADD a=0 b=15 | out=14 c=0 | Expected c=0 out=15
# 
#    160.00ns ERROR    ..k_V7.0\src\ALU_scoreboard.py(27) [uvm_test_top.env.sb_env]: FAIL: ADD a=1 b=0 | out=4 c=1 | Expected c=0 out=1
# 
#    170.00ns ERROR    ..k_V7.0\src\ALU_scoreboard.py(27) [uvm_test_top.env.sb_env]: FAIL: ADD a=1 b=1 | out=3 c=1 | Expected c=0 out=2
# 
#    180.00ns ERROR    ..k_V7.0\src\ALU_scoreboard.py(27) [uvm_test_top.env.sb_env]: FAIL: ADD a=1 b=2 | out=2 c=0 | Expected c=0 out=3
# 
#    190.00ns ERROR    ..k_V7.0\src\ALU_scoreboard.py(27) [uvm_test_top.env.sb_env]: FAIL: ADD a=1 b=3 | out=3 c=0 | Expected c=0 out=4
# 
#    200.00ns ERROR    ..k_V7.0\src\ALU_scoreboard.py(27) [uvm_test_top.env.sb_env]: FAIL: ADD a=1 b=4 | out=4 c=0 | Expected c=0 out=5
# 
#    210.00ns ERROR    ..k_V7.0\src\ALU_scoreboard.py(27) [uvm_test_top.env.sb_env]: FAIL: ADD a=1 b=5 | out=6 c=1 | Expected c=0 out=6
# 
#    220.00ns ERROR    ..k_V7.0\src\ALU_scoreboard.py(27) [uvm_test_top.env.sb_env]: FAIL: ADD a=1 b=6 | out=6 c=0 | Expected c=0 out=7
# 
#    230.00ns ERROR    ..k_V7.0\src\ALU_scoreboard.py(27) [uvm_test_top.env.sb_env]: FAIL: ADD a=1 b=7 | out=12 c=1 | Expected c=0 out=8
# 
#    240.00ns ERROR    ..k_V7.0\src\ALU_scoreboard.py(27) [uvm_test_top.env.sb_env]: FAIL: ADD a=1 b=8 | out=8 c=0 | Expected c=0 out=9
# 
#    250.00ns ERROR    ..k_V7.0\src\ALU_scoreboard.py(27) [uvm_test_top.env.sb_env]: FAIL: ADD a=1 b=9 | out=9 c=0 | Expected c=0 out=10
# 
#    260.00ns ERROR    ..k_V7.0\src\ALU_scoreboard.py(27) [uvm_test_top.env.sb_env]: FAIL: ADD a=1 b=10 | out=1 c=0 | Expected c=0 out=11
# 
#    270.00ns ERROR    ..k_V7.0\src\ALU_scoreboard.py(27) [uvm_test_top.env.sb_env]: FAIL: ADD a=1 b=11 | out=6 c=1 | Expected c=0 out=12
# 
#    280.00ns ERROR    ..k_V7.0\src\ALU_scoreboard.py(27) [uvm_test_top.env.sb_env]: FAIL: ADD a=1 b=12 | out=12 c=0 | Expected c=0 out=13
# 
#    290.00ns ERROR    ..k_V7.0\src\ALU_scoreboard.py(27) [uvm_test_top.env.sb_env]: FAIL: ADD a=1 b=13 | out=13 c=0 | Expected c=0 out=14
# 
#    300.00ns ERROR    ..k_V7.0\src\ALU_scoreboard.py(27) [uvm_test_top.env.sb_env]: FAIL: ADD a=1 b=14 | out=14 c=0 | Expected c=0 out=15
# 
#    310.00ns ERROR    ..k_V7.0\src\ALU_scoreboard.py(27) [uvm_test_top.env.sb_env]: FAIL: ADD a=1 b=15 | out=15 c=0 | Expected c=1 out=0
# 
#    320.00ns ERROR    ..k_V7.0\src\ALU_scoreboard.py(27) [uvm_test_top.env.sb_env]: FAIL: ADD a=2 b=0 | out=0 c=1 | Expected c=0 out=2
# 
#    330.00ns ERROR    ..k_V7.0\src\ALU_scoreboard.py(27) [uvm_test_top.env.sb_env]: FAIL: ADD a=2 b=1 | out=2 c=0 | Expected c=0 out=3
# 
#    340.00ns ERROR    ..k_V7.0\src\ALU_scoreboard.py(27) [uvm_test_top.env.sb_env]: FAIL: ADD a=2 b=2 | out=3 c=0 | Expected c=0 out=4
# 
#    350.00ns ERROR    ..k_V7.0\src\ALU_scoreboard.py(27) [uvm_test_top.env.sb_env]: FAIL: ADD a=2 b=3 | out=4 c=0 | Expected c=0 out=5
# 
#    360.00ns ERROR    ..k_V7.0\src\ALU_scoreboard.py(27) [uvm_test_top.env.sb_env]: FAIL: ADD a=2 b=4 | out=5 c=0 | Expected c=0 out=6
# 
#    370.00ns ERROR    ..k_V7.0\src\ALU_scoreboard.py(27) [uvm_test_top.env.sb_env]: FAIL: ADD a=2 b=5 | out=6 c=0 | Expected c=0 out=7
# 
#    380.00ns ERROR    ..k_V7.0\src\ALU_scoreboard.py(27) [uvm_test_top.env.sb_env]: FAIL: ADD a=2 b=6 | out=1 c=1 | Expected c=0 out=8
# 
#    390.00ns ERROR    ..k_V7.0\src\ALU_scoreboard.py(27) [uvm_test_top.env.sb_env]: FAIL: ADD a=2 b=7 | out=8 c=0 | Expected c=0 out=9
# 
#    400.00ns ERROR    ..k_V7.0\src\ALU_scoreboard.py(27) [uvm_test_top.env.sb_env]: FAIL: ADD a=2 b=8 | out=9 c=0 | Expected c=0 out=10
# 
#    410.00ns ERROR    ..k_V7.0\src\ALU_scoreboard.py(27) [uvm_test_top.env.sb_env]: FAIL: ADD a=2 b=9 | out=7 c=0 | Expected c=0 out=11
# 
#    420.00ns ERROR    ..k_V7.0\src\ALU_scoreboard.py(27) [uvm_test_top.env.sb_env]: FAIL: ADD a=2 b=10 | out=11 c=0 | Expected c=0 out=12
# 
#    430.00ns ERROR    ..k_V7.0\src\ALU_scoreboard.py(27) [uvm_test_top.env.sb_env]: FAIL: ADD a=2 b=11 | out=12 c=0 | Expected c=0 out=13
# 
#    440.00ns ERROR    ..k_V7.0\src\ALU_scoreboard.py(27) [uvm_test_top.env.sb_env]: FAIL: ADD a=2 b=12 | out=7 c=0 | Expected c=0 out=14
# 
#    450.00ns ERROR    ..k_V7.0\src\ALU_scoreboard.py(27) [uvm_test_top.env.sb_env]: FAIL: ADD a=2 b=13 | out=14 c=0 | Expected c=0 out=15
# 
#    460.00ns ERROR    ..k_V7.0\src\ALU_scoreboard.py(27) [uvm_test_top.env.sb_env]: FAIL: ADD a=2 b=14 | out=13 c=0 | Expected c=1 out=0
# 
#    470.00ns ERROR    ..k_V7.0\src\ALU_scoreboard.py(27) [uvm_test_top.env.sb_env]: FAIL: ADD a=2 b=15 | out=5 c=0 | Expected c=1 out=1
# 
#    480.00ns ERROR    ..k_V7.0\src\ALU_scoreboard.py(27) [uvm_test_top.env.sb_env]: FAIL: ADD a=3 b=0 | out=1 c=1 | Expected c=0 out=3
# 
#    490.00ns ERROR    ..k_V7.0\src\ALU_scoreboard.py(27) [uvm_test_top.env.sb_env]: FAIL: ADD a=3 b=1 | out=3 c=0 | Expected c=0 out=4
# 
#    500.00ns ERROR    ..k_V7.0\src\ALU_scoreboard.py(27) [uvm_test_top.env.sb_env]: FAIL: ADD a=3 b=2 | out=4 c=0 | Expected c=0 out=5
# 
#    510.00ns ERROR    ..k_V7.0\src\ALU_scoreboard.py(27) [uvm_test_top.env.sb_env]: FAIL: ADD a=3 b=3 | out=5 c=0 | Expected c=0 out=6
# 
#    520.00ns ERROR    ..k_V7.0\src\ALU_scoreboard.py(27) [uvm_test_top.env.sb_env]: FAIL: ADD a=3 b=4 | out=6 c=0 | Expected c=0 out=7
# 
#    530.00ns ERROR    ..k_V7.0\src\ALU_scoreboard.py(27) [uvm_test_top.env.sb_env]: FAIL: ADD a=3 b=5 | out=13 c=1 | Expected c=0 out=8
# 
#    540.00ns ERROR    ..k_V7.0\src\ALU_scoreboard.py(27) [uvm_test_top.env.sb_env]: FAIL: ADD a=3 b=6 | out=6 c=0 | Expected c=0 out=9
# 
#    550.00ns ERROR    ..k_V7.0\src\ALU_scoreboard.py(27) [uvm_test_top.env.sb_env]: FAIL: ADD a=3 b=7 | out=9 c=0 | Expected c=0 out=10
# 
#    560.00ns ERROR    ..k_V7.0\src\ALU_scoreboard.py(27) [uvm_test_top.env.sb_env]: FAIL: ADD a=3 b=8 | out=10 c=0 | Expected c=0 out=11
# 
#    570.00ns ERROR    ..k_V7.0\src\ALU_scoreboard.py(27) [uvm_test_top.env.sb_env]: FAIL: ADD a=3 b=9 | out=11 c=0 | Expected c=0 out=12
# 
#    580.00ns ERROR    ..k_V7.0\src\ALU_scoreboard.py(27) [uvm_test_top.env.sb_env]: FAIL: ADD a=3 b=10 | out=12 c=0 | Expected c=0 out=13
# 
#    590.00ns ERROR    ..k_V7.0\src\ALU_scoreboard.py(27) [uvm_test_top.env.sb_env]: FAIL: ADD a=3 b=11 | out=13 c=0 | Expected c=0 out=14
# 
#    600.00ns ERROR    ..k_V7.0\src\ALU_scoreboard.py(27) [uvm_test_top.env.sb_env]: FAIL: ADD a=3 b=12 | out=14 c=0 | Expected c=0 out=15
# 
#    610.00ns ERROR    ..k_V7.0\src\ALU_scoreboard.py(27) [uvm_test_top.env.sb_env]: FAIL: ADD a=3 b=13 | out=15 c=0 | Expected c=1 out=0
# 
#    620.00ns ERROR    ..k_V7.0\src\ALU_scoreboard.py(27) [uvm_test_top.env.sb_env]: FAIL: ADD a=3 b=14 | out=0 c=1 | Expected c=1 out=1
# 
#    630.00ns ERROR    ..k_V7.0\src\ALU_scoreboard.py(27) [uvm_test_top.env.sb_env]: FAIL: ADD a=3 b=15 | out=11 c=1 | Expected c=1 out=2
# 
#    640.00ns ERROR    ..k_V7.0\src\ALU_scoreboard.py(27) [uvm_test_top.env.sb_env]: FAIL: ADD a=4 b=0 | out=2 c=1 | Expected c=0 out=4
# 
#    650.00ns ERROR    ..k_V7.0\src\ALU_scoreboard.py(27) [uvm_test_top.env.sb_env]: FAIL: ADD a=4 b=1 | out=4 c=0 | Expected c=0 out=5
# 
#    660.00ns ERROR    ..k_V7.0\src\ALU_scoreboard.py(27) [uvm_test_top.env.sb_env]: FAIL: ADD a=4 b=2 | out=5 c=0 | Expected c=0 out=6
# 
#    670.00ns ERROR    ..k_V7.0\src\ALU_scoreboard.py(27) [uvm_test_top.env.sb_env]: FAIL: ADD a=4 b=3 | out=15 c=1 | Expected c=0 out=7
# 
#    680.00ns ERROR    ..k_V7.0\src\ALU_scoreboard.py(27) [uvm_test_top.env.sb_env]: FAIL: ADD a=4 b=4 | out=7 c=0 | Expected c=0 out=8
# 
#    690.00ns ERROR    ..k_V7.0\src\ALU_scoreboard.py(27) [uvm_test_top.env.sb_env]: FAIL: ADD a=4 b=5 | out=0 c=0 | Expected c=0 out=9
# 
#    700.00ns ERROR    ..k_V7.0\src\ALU_scoreboard.py(27) [uvm_test_top.env.sb_env]: FAIL: ADD a=4 b=6 | out=9 c=0 | Expected c=0 out=10
# 
#    710.00ns ERROR    ..k_V7.0\src\ALU_scoreboard.py(27) [uvm_test_top.env.sb_env]: FAIL: ADD a=4 b=7 | out=10 c=0 | Expected c=0 out=11
# 
#    720.00ns ERROR    ..k_V7.0\src\ALU_scoreboard.py(27) [uvm_test_top.env.sb_env]: FAIL: ADD a=4 b=8 | out=15 c=0 | Expected c=0 out=12
# 
#    730.00ns ERROR    ..k_V7.0\src\ALU_scoreboard.py(27) [uvm_test_top.env.sb_env]: FAIL: ADD a=4 b=9 | out=12 c=0 | Expected c=0 out=13
# 
#    740.00ns ERROR    ..k_V7.0\src\ALU_scoreboard.py(27) [uvm_test_top.env.sb_env]: FAIL: ADD a=4 b=10 | out=13 c=0 | Expected c=0 out=14
# 
#    750.00ns ERROR    ..k_V7.0\src\ALU_scoreboard.py(27) [uvm_test_top.env.sb_env]: FAIL: ADD a=4 b=11 | out=14 c=0 | Expected c=0 out=15
# 
#    760.00ns ERROR    ..k_V7.0\src\ALU_scoreboard.py(27) [uvm_test_top.env.sb_env]: FAIL: ADD a=4 b=12 | out=15 c=0 | Expected c=1 out=0
# 
#    770.00ns ERROR    ..k_V7.0\src\ALU_scoreboard.py(27) [uvm_test_top.env.sb_env]: FAIL: ADD a=4 b=13 | out=0 c=1 | Expected c=1 out=1
# 
#    780.00ns ERROR    ..k_V7.0\src\ALU_scoreboard.py(27) [uvm_test_top.env.sb_env]: FAIL: ADD a=4 b=14 | out=1 c=1 | Expected c=1 out=2
# 
#    790.00ns ERROR    ..k_V7.0\src\ALU_scoreboard.py(27) [uvm_test_top.env.sb_env]: FAIL: ADD a=4 b=15 | out=8 c=0 | Expected c=1 out=3
# 
#    800.00ns ERROR    ..k_V7.0\src\ALU_scoreboard.py(27) [uvm_test_top.env.sb_env]: FAIL: ADD a=5 b=0 | out=3 c=1 | Expected c=0 out=5
# 
#    810.00ns ERROR    ..k_V7.0\src\ALU_scoreboard.py(27) [uvm_test_top.env.sb_env]: FAIL: ADD a=5 b=1 | out=5 c=0 | Expected c=0 out=6
# 
#    820.00ns ERROR    ..k_V7.0\src\ALU_scoreboard.py(27) [uvm_test_top.env.sb_env]: FAIL: ADD a=5 b=2 | out=6 c=0 | Expected c=0 out=7
# 
#    830.00ns ERROR    ..k_V7.0\src\ALU_scoreboard.py(27) [uvm_test_top.env.sb_env]: FAIL: ADD a=5 b=3 | out=12 c=0 | Expected c=0 out=8
# 
#    840.00ns ERROR    ..k_V7.0\src\ALU_scoreboard.py(27) [uvm_test_top.env.sb_env]: FAIL: ADD a=5 b=4 | out=8 c=0 | Expected c=0 out=9
# 
#    850.00ns ERROR    ..k_V7.0\src\ALU_scoreboard.py(27) [uvm_test_top.env.sb_env]: FAIL: ADD a=5 b=5 | out=9 c=0 | Expected c=0 out=10
# 
#    860.00ns ERROR    ..k_V7.0\src\ALU_scoreboard.py(27) [uvm_test_top.env.sb_env]: FAIL: ADD a=5 b=6 | out=10 c=0 | Expected c=0 out=11
# 
#    870.00ns ERROR    ..k_V7.0\src\ALU_scoreboard.py(27) [uvm_test_top.env.sb_env]: FAIL: ADD a=5 b=7 | out=11 c=0 | Expected c=0 out=12
# 
#    880.00ns ERROR    ..k_V7.0\src\ALU_scoreboard.py(27) [uvm_test_top.env.sb_env]: FAIL: ADD a=5 b=8 | out=6 c=0 | Expected c=0 out=13
# 
#    890.00ns ERROR    ..k_V7.0\src\ALU_scoreboard.py(27) [uvm_test_top.env.sb_env]: FAIL: ADD a=5 b=9 | out=13 c=0 | Expected c=0 out=14
# 
#    900.00ns ERROR    ..k_V7.0\src\ALU_scoreboard.py(27) [uvm_test_top.env.sb_env]: FAIL: ADD a=5 b=10 | out=14 c=0 | Expected c=0 out=15
# 
#    910.00ns ERROR    ..k_V7.0\src\ALU_scoreboard.py(27) [uvm_test_top.env.sb_env]: FAIL: ADD a=5 b=11 | out=12 c=0 | Expected c=1 out=0
# 
#    920.00ns ERROR    ..k_V7.0\src\ALU_scoreboard.py(27) [uvm_test_top.env.sb_env]: FAIL: ADD a=5 b=12 | out=0 c=1 | Expected c=1 out=1
# 
#    930.00ns ERROR    ..k_V7.0\src\ALU_scoreboard.py(27) [uvm_test_top.env.sb_env]: FAIL: ADD a=5 b=13 | out=1 c=1 | Expected c=1 out=2
# 
#    940.00ns ERROR    ..k_V7.0\src\ALU_scoreboard.py(27) [uvm_test_top.env.sb_env]: FAIL: ADD a=5 b=14 | out=2 c=1 | Expected c=1 out=3
# 
#    950.00ns ERROR    ..k_V7.0\src\ALU_scoreboard.py(27) [uvm_test_top.env.sb_env]: FAIL: ADD a=5 b=15 | out=3 c=1 | Expected c=1 out=4
# 
#    960.00ns ERROR    ..k_V7.0\src\ALU_scoreboard.py(27) [uvm_test_top.env.sb_env]: FAIL: ADD a=6 b=0 | out=4 c=1 | Expected c=0 out=6
# 
#    970.00ns ERROR    ..k_V7.0\src\ALU_scoreboard.py(27) [uvm_test_top.env.sb_env]: FAIL: ADD a=6 b=1 | out=6 c=0 | Expected c=0 out=7
# 
#    980.00ns ERROR    ..k_V7.0\src\ALU_scoreboard.py(27) [uvm_test_top.env.sb_env]: FAIL: ADD a=6 b=2 | out=7 c=0 | Expected c=0 out=8
# 
#    990.00ns ERROR    ..k_V7.0\src\ALU_scoreboard.py(27) [uvm_test_top.env.sb_env]: FAIL: ADD a=6 b=3 | out=1 c=1 | Expected c=0 out=9
# 
#   1000.00ns ERROR    ..k_V7.0\src\ALU_scoreboard.py(27) [uvm_test_top.env.sb_env]: FAIL: ADD a=6 b=4 | out=9 c=0 | Expected c=0 out=10
# 
#   1010.00ns ERROR    ..k_V7.0\src\ALU_scoreboard.py(27) [uvm_test_top.env.sb_env]: FAIL: ADD a=6 b=5 | out=10 c=0 | Expected c=0 out=11
# 
#   1020.00ns ERROR    ..k_V7.0\src\ALU_scoreboard.py(27) [uvm_test_top.env.sb_env]: FAIL: ADD a=6 b=6 | out=11 c=0 | Expected c=0 out=12
# 
#   1030.00ns ERROR    ..k_V7.0\src\ALU_scoreboard.py(27) [uvm_test_top.env.sb_env]: FAIL: ADD a=6 b=7 | out=12 c=0 | Expected c=0 out=13
# 
#   1040.00ns ERROR    ..k_V7.0\src\ALU_scoreboard.py(27) [uvm_test_top.env.sb_env]: FAIL: ADD a=6 b=8 | out=13 c=0 | Expected c=0 out=14
# 
#   1050.00ns ERROR    ..k_V7.0\src\ALU_scoreboard.py(27) [uvm_test_top.env.sb_env]: FAIL: ADD a=6 b=9 | out=14 c=0 | Expected c=0 out=15
# 
#   1060.00ns ERROR    ..k_V7.0\src\ALU_scoreboard.py(27) [uvm_test_top.env.sb_env]: FAIL: ADD a=6 b=10 | out=15 c=0 | Expected c=1 out=0
# 
#   1070.00ns ERROR    ..k_V7.0\src\ALU_scoreboard.py(27) [uvm_test_top.env.sb_env]: FAIL: ADD a=6 b=11 | out=0 c=1 | Expected c=1 out=1
# 
#   1080.00ns ERROR    ..k_V7.0\src\ALU_scoreboard.py(27) [uvm_test_top.env.sb_env]: FAIL: ADD a=6 b=12 | out=1 c=1 | Expected c=1 out=2
# 
#   1090.00ns ERROR    ..k_V7.0\src\ALU_scoreboard.py(27) [uvm_test_top.env.sb_env]: FAIL: ADD a=6 b=13 | out=2 c=1 | Expected c=1 out=3
# 
#   1100.00ns ERROR    ..k_V7.0\src\ALU_scoreboard.py(27) [uvm_test_top.env.sb_env]: FAIL: ADD a=6 b=14 | out=3 c=1 | Expected c=1 out=4
# 
#   1110.00ns ERROR    ..k_V7.0\src\ALU_scoreboard.py(27) [uvm_test_top.env.sb_env]: FAIL: ADD a=6 b=15 | out=4 c=1 | Expected c=1 out=5
# 
#   1120.00ns ERROR    ..k_V7.0\src\ALU_scoreboard.py(27) [uvm_test_top.env.sb_env]: FAIL: ADD a=7 b=0 | out=2 c=0 | Expected c=0 out=7
# 
#   1130.00ns ERROR    ..k_V7.0\src\ALU_scoreboard.py(27) [uvm_test_top.env.sb_env]: FAIL: ADD a=7 b=1 | out=10 c=1 | Expected c=0 out=8
# 
#   1140.00ns ERROR    ..k_V7.0\src\ALU_scoreboard.py(27) [uvm_test_top.env.sb_env]: FAIL: ADD a=7 b=2 | out=8 c=0 | Expected c=0 out=9
# 
#   1150.00ns ERROR    ..k_V7.0\src\ALU_scoreboard.py(27) [uvm_test_top.env.sb_env]: FAIL: ADD a=7 b=3 | out=9 c=0 | Expected c=0 out=10
# 
#   1160.00ns ERROR    ..k_V7.0\src\ALU_scoreboard.py(27) [uvm_test_top.env.sb_env]: FAIL: ADD a=7 b=4 | out=10 c=0 | Expected c=0 out=11
# 
#   1170.00ns ERROR    ..k_V7.0\src\ALU_scoreboard.py(27) [uvm_test_top.env.sb_env]: FAIL: ADD a=7 b=5 | out=11 c=0 | Expected c=0 out=12
# 
#   1180.00ns ERROR    ..k_V7.0\src\ALU_scoreboard.py(27) [uvm_test_top.env.sb_env]: FAIL: ADD a=7 b=6 | out=12 c=0 | Expected c=0 out=13
# 
#   1190.00ns ERROR    ..k_V7.0\src\ALU_scoreboard.py(27) [uvm_test_top.env.sb_env]: FAIL: ADD a=7 b=7 | out=9 c=1 | Expected c=0 out=14
# 
#   1200.00ns ERROR    ..k_V7.0\src\ALU_scoreboard.py(27) [uvm_test_top.env.sb_env]: FAIL: ADD a=7 b=8 | out=14 c=0 | Expected c=0 out=15
# 
#   1210.00ns ERROR    ..k_V7.0\src\ALU_scoreboard.py(27) [uvm_test_top.env.sb_env]: FAIL: ADD a=7 b=9 | out=15 c=0 | Expected c=1 out=0
# 
#   1220.00ns ERROR    ..k_V7.0\src\ALU_scoreboard.py(27) [uvm_test_top.env.sb_env]: FAIL: ADD a=7 b=10 | out=11 c=0 | Expected c=1 out=1
# 
#   1230.00ns ERROR    ..k_V7.0\src\ALU_scoreboard.py(27) [uvm_test_top.env.sb_env]: FAIL: ADD a=7 b=11 | out=1 c=1 | Expected c=1 out=2
# 
#   1240.00ns ERROR    ..k_V7.0\src\ALU_scoreboard.py(27) [uvm_test_top.env.sb_env]: FAIL: ADD a=7 b=12 | out=14 c=0 | Expected c=1 out=3
# 
#   1250.00ns ERROR    ..k_V7.0\src\ALU_scoreboard.py(27) [uvm_test_top.env.sb_env]: FAIL: ADD a=7 b=13 | out=3 c=1 | Expected c=1 out=4
# 
#   1260.00ns ERROR    ..k_V7.0\src\ALU_scoreboard.py(27) [uvm_test_top.env.sb_env]: FAIL: ADD a=7 b=14 | out=4 c=1 | Expected c=1 out=5
# 
#   1270.00ns ERROR    ..k_V7.0\src\ALU_scoreboard.py(27) [uvm_test_top.env.sb_env]: FAIL: ADD a=7 b=15 | out=5 c=1 | Expected c=1 out=6
# 
#   1280.00ns ERROR    ..k_V7.0\src\ALU_scoreboard.py(27) [uvm_test_top.env.sb_env]: FAIL: ADD a=8 b=0 | out=6 c=1 | Expected c=0 out=8
# 
#   1290.00ns ERROR    ..k_V7.0\src\ALU_scoreboard.py(27) [uvm_test_top.env.sb_env]: FAIL: ADD a=8 b=1 | out=12 c=0 | Expected c=0 out=9
# 
#   1300.00ns ERROR    ..k_V7.0\src\ALU_scoreboard.py(27) [uvm_test_top.env.sb_env]: FAIL: ADD a=8 b=2 | out=9 c=0 | Expected c=0 out=10
# 
#   1310.00ns ERROR    ..k_V7.0\src\ALU_scoreboard.py(27) [uvm_test_top.env.sb_env]: FAIL: ADD a=8 b=3 | out=10 c=0 | Expected c=0 out=11
# 
#   1320.00ns ERROR    ..k_V7.0\src\ALU_scoreboard.py(27) [uvm_test_top.env.sb_env]: FAIL: ADD a=8 b=4 | out=11 c=1 | Expected c=0 out=12
# 
#   1330.00ns ERROR    ..k_V7.0\src\ALU_scoreboard.py(27) [uvm_test_top.env.sb_env]: FAIL: ADD a=8 b=5 | out=11 c=0 | Expected c=0 out=13
# 
#   1340.00ns ERROR    ..k_V7.0\src\ALU_scoreboard.py(27) [uvm_test_top.env.sb_env]: FAIL: ADD a=8 b=6 | out=13 c=0 | Expected c=0 out=14
# 
#   1350.00ns ERROR    ..k_V7.0\src\ALU_scoreboard.py(27) [uvm_test_top.env.sb_env]: FAIL: ADD a=8 b=7 | out=14 c=0 | Expected c=0 out=15
# 
#   1360.00ns ERROR    ..k_V7.0\src\ALU_scoreboard.py(27) [uvm_test_top.env.sb_env]: FAIL: ADD a=8 b=8 | out=15 c=0 | Expected c=1 out=0
# 
#   1370.00ns ERROR    ..k_V7.0\src\ALU_scoreboard.py(27) [uvm_test_top.env.sb_env]: FAIL: ADD a=8 b=9 | out=0 c=1 | Expected c=1 out=1
# 
#   1380.00ns ERROR    ..k_V7.0\src\ALU_scoreboard.py(27) [uvm_test_top.env.sb_env]: FAIL: ADD a=8 b=10 | out=11 c=1 | Expected c=1 out=2
# 
#   1390.00ns ERROR    ..k_V7.0\src\ALU_scoreboard.py(27) [uvm_test_top.env.sb_env]: FAIL: ADD a=8 b=11 | out=7 c=0 | Expected c=1 out=3
# 
#   1400.00ns ERROR    ..k_V7.0\src\ALU_scoreboard.py(27) [uvm_test_top.env.sb_env]: FAIL: ADD a=8 b=12 | out=3 c=1 | Expected c=1 out=4
# 
#   1410.00ns ERROR    ..k_V7.0\src\ALU_scoreboard.py(27) [uvm_test_top.env.sb_env]: FAIL: ADD a=8 b=13 | out=13 c=1 | Expected c=1 out=5
# 
#   1420.00ns ERROR    ..k_V7.0\src\ALU_scoreboard.py(27) [uvm_test_top.env.sb_env]: FAIL: ADD a=8 b=14 | out=5 c=1 | Expected c=1 out=6
# 
#   1430.00ns ERROR    ..k_V7.0\src\ALU_scoreboard.py(27) [uvm_test_top.env.sb_env]: FAIL: ADD a=8 b=15 | out=6 c=1 | Expected c=1 out=7
# 
#   1450.00ns ERROR    ..k_V7.0\src\ALU_scoreboard.py(27) [uvm_test_top.env.sb_env]: FAIL: ADD a=9 b=1 | out=9 c=0 | Expected c=0 out=10
# 
#   1460.00ns ERROR    ..k_V7.0\src\ALU_scoreboard.py(27) [uvm_test_top.env.sb_env]: FAIL: ADD a=9 b=2 | out=1 c=1 | Expected c=0 out=11
# 
