Verification/Assignments_Abdelrahman_Khaled/Task 5/log/transcript.log
# Reading pref.tcl
# //  Questa Sim-64
# //  Version 2021.1 win64 Jan 19 2021
# //
# //  Copyright 1991-2021 Mentor Graphics Corporation
# //  All Rights Reserved.
# //
# //  QuestaSim and its associated documentation contain trade
# //  secrets and commercial or financial information that are the property of
# //  Mentor Graphics Corporation and are privileged, confidential,
# //  and exempt from disclosure under the Freedom of Information Act,
# //  5 U.S.C. Section 552. Furthermore, this information
# //  is prohibited from disclosure under the Trade Secrets Act,
# //  18 U.S.C. Section 1905.
# //
# vsim -gui -onfinish stop -pli "C:/Users/ABD_ELR7MAN/AppData/Roaming/Python/Python312/site-packages/cocotb/libs/cocotbvpi_modelsim.dll" -l transcript.log top.ALU 
# Start time: 05:31:24 on Feb 28,2026
# ** Note: (vsim-3812) Design is being optimized...
# ** Warning: (vsim-3865) Due to PLI being present, global +acc is being enabled automatically. This will cause your simulation to run very slowly. Please use vsim -no_autoacc to disable this feature. This feature is now deprecated and will be removed from future releases.
# Loading sv_std.std
# Loading work.dut_sv_unit(fast)
# Loading work.ALU(fast)
# Loading C:/Users/ABD_ELR7MAN/AppData/Roaming/Python/Python312/site-packages/cocotb/libs/cocotbvpi_modelsim.dll
#      -.--ns INFO     gpi                                ..mbed\gpi_embed.cpp:81   in set_program_name_in_venv        Did not detect Python virtual environment. Using system-wide Python interpreter
#      -.--ns INFO     gpi                                ..\gpi\GpiCommon.cpp:101  in gpi_print_registered_impl       VPI registered
#      -.--ns INFO     gpi                                ..\gpi\GpiCommon.cpp:101  in gpi_print_registered_impl       FLI registered
add wave -position insertpoint  \
sim:/ALU/a \
sim:/ALU/b \
sim:/ALU/c \
sim:/ALU/clk \
sim:/ALU/op \
sim:/ALU/out \
sim:/ALU/out_data
run -all
#      0.00ns INFO     cocotb                             Running on ModelSim for Questa-64 version 2021.1 2021.01
# 
#      0.00ns INFO     cocotb                             Running tests with cocotb v1.9.2 from C:\Users\ABD_ELR7MAN\AppData\Roaming\Python\Python312\site-packages\cocotb
# 
#      0.00ns INFO     cocotb                             Seeding Python random module with 1772249498
# 
#      0.00ns INFO     cocotb.regression                  pytest not found, install it to enable better AssertionError messages
# 
#      0.00ns INFO     cocotb.regression                  Found test testbench.run_add_test
# 
#      0.00ns INFO     cocotb.regression                  Found test testbench.run_xor_test
# 
#      0.00ns INFO     cocotb.regression                  Found test testbench.run_and_test
# 
#      0.00ns INFO     cocotb.regression                  Found test testbench.run_or_test
# 
#      0.00ns INFO     cocotb.regression                  Found test testbench.run_random_test
# 
#      0.00ns INFO     cocotb.regression                  running run_add_test (1/5)
# 
#      0.00ns WARNING  cocotb                             Monitor: 'out' is xxxx at 0.0 ns. Skipping.
# 
#     10.00ns INFO     cocotb                             PASS: ALUTransaction(a=0, b=2, op=0, out=2, c=0)
# 
#     20.00ns INFO     cocotb                             PASS: ALUTransaction(a=14, b=13, op=0, out=11, c=1)
# 
#     30.00ns INFO     cocotb                             PASS: ALUTransaction(a=12, b=13, op=0, out=9, c=1)
# 
#     40.00ns INFO     cocotb                             PASS: ALUTransaction(a=9, b=4, op=0, out=13, c=0)
# 
#     50.00ns INFO     cocotb                             PASS: ALUTransaction(a=0, b=8, op=0, out=8, c=0)
# 
#     60.00ns ERROR    cocotb                             ERROR: ALUTransaction(a=4, b=4, op=0, out=0, c=0) Expected=8
# 
#     70.00ns ERROR    cocotb                             ERROR: ALUTransaction(a=7, b=0, op=0, out=10, c=1) Expected=7
# 
#     80.00ns ERROR    cocotb                             ERROR: ALUTransaction(a=8, b=10, op=0, out=7, c=0) Expected=2
# 
#     90.00ns INFO     cocotb                             PASS: ALUTransaction(a=6, b=14, op=0, out=4, c=1)
# 
#    100.00ns INFO     cocotb                             PASS: ALUTransaction(a=6, b=10, op=0, out=0, c=1)
# 
#    110.00ns ERROR    cocotb                             ERROR: ALUTransaction(a=7, b=9, op=0, out=11, c=0) Expected=0
# 
#    120.00ns ERROR    cocotb                             ERROR: ALUTransaction(a=5, b=2, op=0, out=12, c=0) Expected=7
# 
#    130.00ns INFO     cocotb                             PASS: ALUTransaction(a=12, b=7, op=0, out=3, c=1)
# 
#    140.00ns INFO     cocotb                             PASS: ALUTransaction(a=1, b=5, op=0, out=6, c=0)
# 
#    150.00ns INFO     cocotb                             PASS: ALUTransaction(a=2, b=15, op=0, out=1, c=1)
# 
#    160.00ns INFO     cocotb                             PASS: ALUTransaction(a=15, b=8, op=0, out=7, c=1)
# 
#    170.00ns INFO     cocotb                             PASS: ALUTransaction(a=5, b=4, op=0, out=9, c=0)
# 
#    180.00ns INFO     cocotb                             PASS: ALUTransaction(a=14, b=10, op=0, out=8, c=1)
# 
#    190.00ns INFO     cocotb                             PASS: ALUTransaction(a=11, b=2, op=0, out=13, c=0)
# 
#    200.00ns INFO     cocotb                             ========== SCOREBOARD REPORT ==========
# 
#    200.00ns INFO     cocotb                             Total Transactions: 19
# 
#    200.00ns INFO     cocotb                             Errors: 5
# 
#    200.00ns ERROR    cocotb                             TEST FAILED
# 
#    201.00ns INFO     cocotb.regression                  run_add_test passed
# 
#    201.00ns INFO     cocotb.regression                  running run_xor_test (2/5)
# 
#    211.00ns INFO     cocotb                             PASS: ALUTransaction(a=4, b=8, op=1, out=12, c=0)
# 
#    221.00ns INFO     cocotb                             PASS: ALUTransaction(a=5, b=5, op=1, out=0, c=0)
# 
#    231.00ns INFO     cocotb                             PASS: ALUTransaction(a=7, b=2, op=1, out=5, c=0)
# 
#    241.00ns INFO     cocotb                             PASS: ALUTransaction(a=11, b=13, op=1, out=6, c=0)
# 
#    251.00ns ERROR    cocotb                             ERROR: ALUTransaction(a=1, b=10, op=1, out=9, c=0) Expected=11
# 
#    261.00ns INFO     cocotb                             PASS: ALUTransaction(a=12, b=15, op=1, out=3, c=0)
# 
#    271.00ns INFO     cocotb                             PASS: ALUTransaction(a=8, b=4, op=1, out=12, c=0)
# 
#    281.00ns INFO     cocotb                             PASS: ALUTransaction(a=7, b=6, op=1, out=1, c=0)
# 
#    291.00ns INFO     cocotb                             PASS: ALUTransaction(a=10, b=7, op=1, out=13, c=0)
# 
#    301.00ns INFO     cocotb                             PASS: ALUTransaction(a=10, b=8, op=1, out=2, c=0)
# 
#    311.00ns INFO     cocotb                             PASS: ALUTransaction(a=8, b=9, op=1, out=1, c=0)
# 
#    321.00ns ERROR    cocotb                             ERROR: ALUTransaction(a=13, b=13, op=1, out=10, c=0) Expected=0
# 
#    331.00ns INFO     cocotb                             PASS: ALUTransaction(a=2, b=13, op=1, out=15, c=0)
# 
#    341.00ns INFO     cocotb                             PASS: ALUTransaction(a=14, b=3, op=1, out=13, c=0)
# 
#    351.00ns INFO     cocotb                             PASS: ALUTransaction(a=2, b=6, op=1, out=4, c=0)
# 
#    361.00ns ERROR    cocotb                             ERROR: ALUTransaction(a=9, b=0, op=1, out=4, c=0) Expected=9
# 
#    371.00ns INFO     cocotb                             PASS: ALUTransaction(a=4, b=9, op=1, out=13, c=0)
# 
#    381.00ns INFO     cocotb                             PASS: ALUTransaction(a=0, b=14, op=1, out=14, c=0)
# 
#    391.00ns ERROR    cocotb                             ERROR: ALUTransaction(a=6, b=15, op=1, out=0, c=0) Expected=9
# 
#    401.00ns INFO     cocotb                             PASS: ALUTransaction(a=11, b=15, op=1, out=4, c=0)
# 
#    411.00ns INFO     cocotb                             ========== SCOREBOARD REPORT ==========
# 
#    411.00ns INFO     cocotb                             Total Transactions: 20
# 
#    411.00ns INFO     cocotb                             Errors: 4
# 
#    411.00ns ERROR    cocotb                             TEST FAILED
# 
#    412.00ns INFO     cocotb.regression                  run_xor_test passed
# 
#    412.00ns INFO     cocotb.regression                  running run_and_test (3/5)
# 
#    422.00ns INFO     cocotb                             PASS: ALUTransaction(a=5, b=0, op=2, out=0, c=0)
# 
#    432.00ns INFO     cocotb                             PASS: ALUTransaction(a=7, b=3, op=2, out=3, c=0)
# 
#    442.00ns INFO     cocotb                             PASS: ALUTransaction(a=5, b=15, op=2, out=5, c=0)
# 
#    452.00ns INFO     cocotb                             PASS: ALUTransaction(a=3, b=8, op=2, out=0, c=0)
# 
#    462.00ns INFO     cocotb                             PASS: ALUTransaction(a=0, b=12, op=2, out=0, c=0)
# 
#    472.00ns ERROR    cocotb                             ERROR: ALUTransaction(a=7, b=4, op=2, out=2, c=1) Expected=4
# 
#    482.00ns ERROR    cocotb                             ERROR: ALUTransaction(a=5, b=7, op=2, out=3, c=1) Expected=5
# 
#    492.00ns INFO     cocotb                             PASS: ALUTransaction(a=5, b=10, op=2, out=0, c=0)
# 
#    502.00ns INFO     cocotb                             PASS: ALUTransaction(a=9, b=3, op=2, out=1, c=0)
# 
#    512.00ns INFO     cocotb                             PASS: ALUTransaction(a=4, b=14, op=2, out=4, c=0)
# 
#    522.00ns INFO     cocotb                             PASS: ALUTransaction(a=15, b=14, op=2, out=14, c=0)
# 
#    532.00ns INFO     cocotb                             PASS: ALUTransaction(a=7, b=15, op=2, out=7, c=0)
# 
#    542.00ns INFO     cocotb                             PASS: ALUTransaction(a=0, b=1, op=2, out=0, c=0)
# 
#    552.00ns INFO     cocotb                             PASS: ALUTransaction(a=9, b=2, op=2, out=0, c=0)
# 
#    562.00ns ERROR    cocotb                             ERROR: ALUTransaction(a=13, b=6, op=2, out=11, c=0) Expected=4
# 
#    572.00ns INFO     cocotb                             PASS: ALUTransaction(a=4, b=10, op=2, out=0, c=0)
# 
#    582.00ns INFO     cocotb                             PASS: ALUTransaction(a=10, b=0, op=2, out=0, c=0)
# 
#    592.00ns INFO     cocotb                             PASS: ALUTransaction(a=2, b=5, op=2, out=0, c=0)
# 
#    602.00ns INFO     cocotb                             PASS: ALUTransaction(a=8, b=7, op=2, out=0, c=0)
# 
#    612.00ns ERROR    cocotb                             ERROR: ALUTransaction(a=8, b=2, op=2, out=5, c=0) Expected=0
# 
#    622.00ns INFO     cocotb                             ========== SCOREBOARD REPORT ==========
# 
#    622.00ns INFO     cocotb                             Total Transactions: 20
# 
#    622.00ns INFO     cocotb                             Errors: 4
# 
#    622.00ns ERROR    cocotb                             TEST FAILED
# 
#    623.00ns INFO     cocotb.regression                  run_and_test passed
# 
#    623.00ns INFO     cocotb.regression                  running run_or_test (4/5)
# 
#    633.00ns INFO     cocotb                             PASS: ALUTransaction(a=13, b=3, op=3, out=15, c=0)
# 
#    643.00ns INFO     cocotb                             PASS: ALUTransaction(a=6, b=4, op=3, out=6, c=0)
# 
#    653.00ns INFO     cocotb                             PASS: ALUTransaction(a=10, b=8, op=3, out=10, c=0)
# 
#    663.00ns ERROR    cocotb                             ERROR: ALUTransaction(a=0, b=14, op=3, out=6, c=0) Expected=14
# 
#    673.00ns INFO     cocotb                             PASS: ALUTransaction(a=11, b=3, op=3, out=11, c=0)
# 
#    683.00ns ERROR    cocotb                             ERROR: ALUTransaction(a=1, b=12, op=3, out=9, c=1) Expected=13
# 
#    693.00ns INFO     cocotb                             PASS: ALUTransaction(a=13, b=8, op=3, out=13, c=0)
# 
#    703.00ns INFO     cocotb                             PASS: ALUTransaction(a=1, b=10, op=3, out=11, c=0)
# 
#    713.00ns ERROR    cocotb                             ERROR: ALUTransaction(a=9, b=6, op=3, out=13, c=0) Expected=15
# 
#    723.00ns INFO     cocotb                             PASS: ALUTransaction(a=9, b=8, op=3, out=9, c=0)
# 
#    733.00ns INFO     cocotb                             PASS: ALUTransaction(a=2, b=4, op=3, out=6, c=0)
# 
#    743.00ns INFO     cocotb                             PASS: ALUTransaction(a=7, b=12, op=3, out=15, c=0)
# 
#    753.00ns INFO     cocotb                             PASS: ALUTransaction(a=2, b=1, op=3, out=3, c=0)
# 
#    763.00ns INFO     cocotb                             PASS: ALUTransaction(a=13, b=2, op=3, out=15, c=0)
# 
#    773.00ns INFO     cocotb                             PASS: ALUTransaction(a=0, b=6, op=3, out=6, c=0)
# 
#    783.00ns INFO     cocotb                             PASS: ALUTransaction(a=9, b=4, op=3, out=13, c=0)
# 
#    793.00ns ERROR    cocotb                             ERROR: ALUTransaction(a=13, b=12, op=3, out=10, c=1) Expected=13
# 
#    803.00ns INFO     cocotb                             PASS: ALUTransaction(a=7, b=7, op=3, out=7, c=0)
# 
#    813.00ns ERROR    cocotb                             ERROR: ALUTransaction(a=1, b=8, op=3, out=0, c=0) Expected=9
# 
#    823.00ns INFO     cocotb                             PASS: ALUTransaction(a=5, b=12, op=3, out=13, c=0)
# 
#    833.00ns INFO     cocotb                             ========== SCOREBOARD REPORT ==========
# 
#    833.00ns INFO     cocotb                             Total Transactions: 20
# 
#    833.00ns INFO     cocotb                             Errors: 5
# 
#    833.00ns ERROR    cocotb                             TEST FAILED
# 
#    834.00ns INFO     cocotb.regression                  run_or_test passed
# 
#    834.00ns INFO     cocotb.regression                  running run_random_test (5/5)
# 
#    844.00ns INFO     cocotb                             PASS: ALUTransaction(a=13, b=11, op=1, out=6, c=0)
# 
#    854.00ns ERROR    cocotb                             ERROR: ALUTransaction(a=8, b=0, op=2, out=10, c=1) Expected=0
# 
#    864.00ns INFO     cocotb                             PASS: ALUTransaction(a=10, b=10, op=2, out=10, c=0)
# 
#    874.00ns INFO     cocotb                             PASS: ALUTransaction(a=2, b=12, op=2, out=0, c=0)
# 
#    884.00ns INFO     cocotb                             PASS: ALUTransaction(a=12, b=5, op=1, out=9, c=0)
# 
#    894.00ns ERROR    cocotb                             ERROR: ALUTransaction(a=13, b=2, op=2, out=1, c=1) Expected=0
# 
#    904.00ns ERROR    cocotb                             ERROR: ALUTransaction(a=15, b=3, op=1, out=15, c=1) Expected=12
# 
#    914.00ns INFO     cocotb                             PASS: ALUTransaction(a=12, b=9, op=2, out=8, c=0)
# 
#    924.00ns INFO     cocotb                             PASS: ALUTransaction(a=0, b=10, op=1, out=10, c=0)
# 
#    934.00ns INFO     cocotb                             PASS: ALUTransaction(a=6, b=10, op=1, out=12, c=0)
# 
#    944.00ns ERROR    cocotb                             ERROR: ALUTransaction(a=8, b=1, op=3, out=5, c=1) Expected=9
# 
#    954.00ns ERROR    cocotb                             ERROR: ALUTransaction(a=5, b=8, op=2, out=8, c=1) Expected=0
# 
#    964.00ns INFO     cocotb                             PASS: ALUTransaction(a=12, b=10, op=2, out=8, c=0)
# 
#    974.00ns INFO     cocotb                             PASS: ALUTransaction(a=6, b=13, op=0, out=3, c=1)
# 
#    984.00ns ERROR    cocotb                             ERROR: ALUTransaction(a=4, b=12, op=3, out=14, c=0) Expected=12
# 
#    994.00ns ERROR    cocotb                             ERROR: ALUTransaction(a=2, b=0, op=2, out=15, c=1) Expected=0
# 
#   1004.00ns INFO     cocotb                             PASS: ALUTransaction(a=9, b=8, op=3, out=9, c=0)
# 
#   1014.00ns INFO     cocotb                             PASS: ALUTransaction(a=10, b=13, op=2, out=8, c=0)
# 
#   1024.00ns INFO     cocotb                             PASS: ALUTransaction(a=12, b=7, op=0, out=3, c=1)
# 
#   1034.00ns INFO     cocotb                             PASS: ALUTransaction(a=2, b=10, op=2, out=2, c=0)
# 
#   1044.00ns INFO     cocotb                             ========== SCOREBOARD REPORT ==========
# 
#   1044.00ns INFO     cocotb                             Total Transactions: 20
# 
#   1044.00ns INFO     cocotb                             Errors: 7
# 
#   1044.00ns ERROR    cocotb                             TEST FAILED
# 
#   1045.00ns INFO     cocotb.regression                  run_random_test passed
# 
#   1045.00ns INFO     cocotb.regression                  **************************************************************************************
# 
#                                                         ** TEST                          STATUS  SIM TIME (ns)  REAL TIME (s)  RATIO (ns/s) **
# 
#                                                         **************************************************************************************
# 
#                                                         ** testbench.run_add_test         PASS         201.00           0.00     100256.29  **
# 
#                                                         ** testbench.run_xor_test         PASS         211.00           0.00           inf  **
# 
#                                                         ** testbench.run_and_test         PASS         211.00           0.00           inf  **
# 
#                                                         ** testbench.run_or_test          PASS         211.00           0.00           inf  **
# 
#                                                         ** testbench.run_random_test      PASS         211.00           0.00           inf  **
# 
#                                                         **************************************************************************************
# 
#                                                         ** TESTS=5 PASS=5 FAIL=0 SKIP=0               1045.00           0.04      25744.32  **
# 
#                                                         **************************************************************************************
# 
#                                                         
# 
# ** Note: $finish
#    Time: 1045 ns  Iteration: 0  Instance: /ALU
# Simulation stop requested.
# End time: 05:32:00 on Feb 28,2026, Elapsed time: 0:00:36
# Errors: 0, Warnings: 1
